{
  "name": "intl-tel-input",
  "repo": "https://vhurcala@stash.webland.sk/scm/git-mirrors/intl-tel-input.git",
  "version": "6.0.6",
  "scripts": ["index.js"],
  "dependencies": {
    "jquery": ">=1.7"
  },
  "license": "MIT"
}